%YAML 1.1
%TAG !u! tag:unity3d.com,2011:
--- !u!1001 &5766797771744529361
PrefabInstance:
  m_ObjectHideFlags: 0
  serializedVersion: 2
  m_Modification:
    m_TransformParent: {fileID: 0}
    m_Modifications:
    - target: {fileID: 188807230, guid: 56adf1ea6a2b3384d8655588a5359828, type: 3}
      propertyPath: _itemProfile
      value: 
      objectReference: {fileID: 11400000, guid: 984074b81f9484b4da4d5ec0f2678b9a, type: 2}
    - target: {fileID: 520504470782376420, guid: 56adf1ea6a2b3384d8655588a5359828, type: 3}
      propertyPath: m_Name
      value: Antique_Key Concrete
      objectReference: {fileID: 0}
    - target: {fileID: 897030662086468446, guid: 56adf1ea6a2b3384d8655588a5359828, type: 3}
      propertyPath: m_RootOrder
      value: 0
      objectReference: {fileID: 0}
    - target: {fileID: 897030662086468446, guid: 56adf1ea6a2b3384d8655588a5359828, type: 3}
      propertyPath: m_LocalPosition.x
      value: 0.6221385
      objectReference: {fileID: 0}
    - target: {fileID: 897030662086468446, guid: 56adf1ea6a2b3384d8655588a5359828, type: 3}
      propertyPath: m_LocalPosition.y
      value: 2.091
      objectReference: {fileID: 0}
    - target: {fileID: 897030662086468446, guid: 56adf1ea6a2b3384d8655588a5359828, type: 3}
      propertyPath: m_LocalPosition.z
      value: -5.7451706
      objectReference: {fileID: 0}
    - target: {fileID: 897030662086468446, guid: 56adf1ea6a2b3384d8655588a5359828, type: 3}
      propertyPath: m_LocalRotation.w
      value: 1
      objectReference: {fileID: 0}
    - target: {fileID: 897030662086468446, guid: 56adf1ea6a2b3384d8655588a5359828, type: 3}
      propertyPath: m_LocalRotation.x
      value: -0
      objectReference: {fileID: 0}
    - target: {fileID: 897030662086468446, guid: 56adf1ea6a2b3384d8655588a5359828, type: 3}
      propertyPath: m_LocalRotation.y
      value: -0
      objectReference: {fileID: 0}
    - target: {fileID: 897030662086468446, guid: 56adf1ea6a2b3384d8655588a5359828, type: 3}
      propertyPath: m_LocalRotation.z
      value: -0
      objectReference: {fileID: 0}
    - target: {fileID: 897030662086468446, guid: 56adf1ea6a2b3384d8655588a5359828, type: 3}
      propertyPath: m_LocalEulerAnglesHint.x
      value: 0
      objectReference: {fileID: 0}
    - target: {fileID: 897030662086468446, guid: 56adf1ea6a2b3384d8655588a5359828, type: 3}
      propertyPath: m_LocalEulerAnglesHint.y
      value: 0
      objectReference: {fileID: 0}
    - target: {fileID: 897030662086468446, guid: 56adf1ea6a2b3384d8655588a5359828, type: 3}
      propertyPath: m_LocalEulerAnglesHint.z
      value: 0
      objectReference: {fileID: 0}
    m_RemovedComponents: []
  m_SourcePrefab: {fileID: 100100000, guid: 56adf1ea6a2b3384d8655588a5359828, type: 3}
