%YAML 1.1
%TAG !u! tag:unity3d.com,2011:
--- !u!1001 &8710087608893905667
PrefabInstance:
  m_ObjectHideFlags: 0
  serializedVersion: 2
  m_Modification:
    m_TransformParent: {fileID: 0}
    m_Modifications:
    - target: {fileID: 5766797771924845551, guid: ae375f682cecc1a4dbeee9ce872703d9, type: 3}
      propertyPath: _itemProfile
      value: 
      objectReference: {fileID: 11400000, guid: b17ba693ad0fdf74a87adc5b1e1873a2, type: 2}
    - target: {fileID: 6286739258067956277, guid: ae375f682cecc1a4dbeee9ce872703d9, type: 3}
      propertyPath: m_Name
      value: Antique_Key Vintage Variant
      objectReference: {fileID: 0}
    - target: {fileID: 6662280321315432591, guid: ae375f682cecc1a4dbeee9ce872703d9, type: 3}
      propertyPath: m_RootOrder
      value: 0
      objectReference: {fileID: 0}
    - target: {fileID: 6662280321315432591, guid: ae375f682cecc1a4dbeee9ce872703d9, type: 3}
      propertyPath: m_LocalPosition.x
      value: 0.012059689
      objectReference: {fileID: 0}
    - target: {fileID: 6662280321315432591, guid: ae375f682cecc1a4dbeee9ce872703d9, type: 3}
      propertyPath: m_LocalPosition.y
      value: 0.019999899
      objectReference: {fileID: 0}
    - target: {fileID: 6662280321315432591, guid: ae375f682cecc1a4dbeee9ce872703d9, type: 3}
      propertyPath: m_LocalPosition.z
      value: 0.23114654
      objectReference: {fileID: 0}
    - target: {fileID: 6662280321315432591, guid: ae375f682cecc1a4dbeee9ce872703d9, type: 3}
      propertyPath: m_LocalRotation.w
      value: 1
      objectReference: {fileID: 0}
    - target: {fileID: 6662280321315432591, guid: ae375f682cecc1a4dbeee9ce872703d9, type: 3}
      propertyPath: m_LocalRotation.x
      value: -0
      objectReference: {fileID: 0}
    - target: {fileID: 6662280321315432591, guid: ae375f682cecc1a4dbeee9ce872703d9, type: 3}
      propertyPath: m_LocalRotation.y
      value: -0
      objectReference: {fileID: 0}
    - target: {fileID: 6662280321315432591, guid: ae375f682cecc1a4dbeee9ce872703d9, type: 3}
      propertyPath: m_LocalRotation.z
      value: -0
      objectReference: {fileID: 0}
    - target: {fileID: 6662280321315432591, guid: ae375f682cecc1a4dbeee9ce872703d9, type: 3}
      propertyPath: m_LocalEulerAnglesHint.x
      value: 0
      objectReference: {fileID: 0}
    - target: {fileID: 6662280321315432591, guid: ae375f682cecc1a4dbeee9ce872703d9, type: 3}
      propertyPath: m_LocalEulerAnglesHint.y
      value: 0
      objectReference: {fileID: 0}
    - target: {fileID: 6662280321315432591, guid: ae375f682cecc1a4dbeee9ce872703d9, type: 3}
      propertyPath: m_LocalEulerAnglesHint.z
      value: 0
      objectReference: {fileID: 0}
    m_RemovedComponents: []
  m_SourcePrefab: {fileID: 100100000, guid: ae375f682cecc1a4dbeee9ce872703d9, type: 3}
