%YAML 1.1
%TAG !u! tag:unity3d.com,2011:
--- !u!1001 &5908204615256318888
PrefabInstance:
  m_ObjectHideFlags: 0
  serializedVersion: 2
  m_Modification:
    m_TransformParent: {fileID: 0}
    m_Modifications:
    - target: {fileID: 144117617434478661, guid: 5f029f4b9f9fa944287c589a2d5b793b, type: 3}
      propertyPath: _itemProfile
      value: 
      objectReference: {fileID: 11400000, guid: 0c44e2eaaa936a643a104f29c9a98e79, type: 2}
    - target: {fileID: 376391672481859999, guid: 5f029f4b9f9fa944287c589a2d5b793b, type: 3}
      propertyPath: m_Name
      value: Antique_Key Vintage (Box)
      objectReference: {fileID: 0}
    - target: {fileID: 1041148003378926373, guid: 5f029f4b9f9fa944287c589a2d5b793b, type: 3}
      propertyPath: m_RootOrder
      value: 0
      objectReference: {fileID: 0}
    - target: {fileID: 1041148003378926373, guid: 5f029f4b9f9fa944287c589a2d5b793b, type: 3}
      propertyPath: m_LocalPosition.x
      value: -6.882106
      objectReference: {fileID: 0}
    - target: {fileID: 1041148003378926373, guid: 5f029f4b9f9fa944287c589a2d5b793b, type: 3}
      propertyPath: m_LocalPosition.y
      value: 6.2100015
      objectReference: {fileID: 0}
    - target: {fileID: 1041148003378926373, guid: 5f029f4b9f9fa944287c589a2d5b793b, type: 3}
      propertyPath: m_LocalPosition.z
      value: -13.876
      objectReference: {fileID: 0}
    - target: {fileID: 1041148003378926373, guid: 5f029f4b9f9fa944287c589a2d5b793b, type: 3}
      propertyPath: m_LocalRotation.w
      value: 1
      objectReference: {fileID: 0}
    - target: {fileID: 1041148003378926373, guid: 5f029f4b9f9fa944287c589a2d5b793b, type: 3}
      propertyPath: m_LocalRotation.x
      value: -0
      objectReference: {fileID: 0}
    - target: {fileID: 1041148003378926373, guid: 5f029f4b9f9fa944287c589a2d5b793b, type: 3}
      propertyPath: m_LocalRotation.y
      value: -0
      objectReference: {fileID: 0}
    - target: {fileID: 1041148003378926373, guid: 5f029f4b9f9fa944287c589a2d5b793b, type: 3}
      propertyPath: m_LocalRotation.z
      value: -0
      objectReference: {fileID: 0}
    - target: {fileID: 1041148003378926373, guid: 5f029f4b9f9fa944287c589a2d5b793b, type: 3}
      propertyPath: m_LocalEulerAnglesHint.x
      value: 0
      objectReference: {fileID: 0}
    - target: {fileID: 1041148003378926373, guid: 5f029f4b9f9fa944287c589a2d5b793b, type: 3}
      propertyPath: m_LocalEulerAnglesHint.y
      value: 0
      objectReference: {fileID: 0}
    - target: {fileID: 1041148003378926373, guid: 5f029f4b9f9fa944287c589a2d5b793b, type: 3}
      propertyPath: m_LocalEulerAnglesHint.z
      value: 0
      objectReference: {fileID: 0}
    m_RemovedComponents: []
  m_SourcePrefab: {fileID: 100100000, guid: 5f029f4b9f9fa944287c589a2d5b793b, type: 3}
