%YAML 1.1
%TAG !u! tag:unity3d.com,2011:
--- !u!1001 &8382891053832018835
PrefabInstance:
  m_ObjectHideFlags: 0
  serializedVersion: 2
  m_Modification:
    m_TransformParent: {fileID: 0}
    m_Modifications:
    - target: {fileID: 5112867694729278107, guid: 34b1906630407d34baa2158fc7dab63e, type: 3}
      propertyPath: m_RootOrder
      value: 0
      objectReference: {fileID: 0}
    - target: {fileID: 5112867694729278107, guid: 34b1906630407d34baa2158fc7dab63e, type: 3}
      propertyPath: m_LocalPosition.x
      value: 0
      objectReference: {fileID: 0}
    - target: {fileID: 5112867694729278107, guid: 34b1906630407d34baa2158fc7dab63e, type: 3}
      propertyPath: m_LocalPosition.y
      value: 0
      objectReference: {fileID: 0}
    - target: {fileID: 5112867694729278107, guid: 34b1906630407d34baa2158fc7dab63e, type: 3}
      propertyPath: m_LocalPosition.z
      value: 0
      objectReference: {fileID: 0}
    - target: {fileID: 5112867694729278107, guid: 34b1906630407d34baa2158fc7dab63e, type: 3}
      propertyPath: m_LocalRotation.w
      value: 1
      objectReference: {fileID: 0}
    - target: {fileID: 5112867694729278107, guid: 34b1906630407d34baa2158fc7dab63e, type: 3}
      propertyPath: m_LocalRotation.x
      value: 0
      objectReference: {fileID: 0}
    - target: {fileID: 5112867694729278107, guid: 34b1906630407d34baa2158fc7dab63e, type: 3}
      propertyPath: m_LocalRotation.y
      value: 0
      objectReference: {fileID: 0}
    - target: {fileID: 5112867694729278107, guid: 34b1906630407d34baa2158fc7dab63e, type: 3}
      propertyPath: m_LocalRotation.z
      value: 0
      objectReference: {fileID: 0}
    - target: {fileID: 5112867694729278107, guid: 34b1906630407d34baa2158fc7dab63e, type: 3}
      propertyPath: m_LocalEulerAnglesHint.x
      value: 0
      objectReference: {fileID: 0}
    - target: {fileID: 5112867694729278107, guid: 34b1906630407d34baa2158fc7dab63e, type: 3}
      propertyPath: m_LocalEulerAnglesHint.y
      value: 0
      objectReference: {fileID: 0}
    - target: {fileID: 5112867694729278107, guid: 34b1906630407d34baa2158fc7dab63e, type: 3}
      propertyPath: m_LocalEulerAnglesHint.z
      value: 0
      objectReference: {fileID: 0}
    - target: {fileID: 5602300609552771105, guid: 34b1906630407d34baa2158fc7dab63e, type: 3}
      propertyPath: m_Name
      value: VHS_Tape Concrete 2 Variant Variant
      objectReference: {fileID: 0}
    - target: {fileID: 7664258900869142241, guid: 34b1906630407d34baa2158fc7dab63e, type: 3}
      propertyPath: _itemProfile
      value: 
      objectReference: {fileID: 11400000, guid: 1b981325e266b1d47b4c4cc603e371a8, type: 2}
    m_RemovedComponents: []
  m_SourcePrefab: {fileID: 100100000, guid: 34b1906630407d34baa2158fc7dab63e, type: 3}
