%YAML 1.1
%TAG !u! tag:unity3d.com,2011:
--- !u!1001 &2142447492813023454
PrefabInstance:
  m_ObjectHideFlags: 0
  serializedVersion: 2
  m_Modification:
    m_TransformParent: {fileID: 0}
    m_Modifications:
    - target: {fileID: 1625691918283214238, guid: 46c43bb82acfd59489b834b5811aebb2, type: 3}
      propertyPath: m_Name
      value: VHS_Tape Vintage 2 Variant
      objectReference: {fileID: 0}
    - target: {fileID: 2144925647851411236, guid: 46c43bb82acfd59489b834b5811aebb2, type: 3}
      propertyPath: m_RootOrder
      value: 0
      objectReference: {fileID: 0}
    - target: {fileID: 2144925647851411236, guid: 46c43bb82acfd59489b834b5811aebb2, type: 3}
      propertyPath: m_LocalPosition.x
      value: 0
      objectReference: {fileID: 0}
    - target: {fileID: 2144925647851411236, guid: 46c43bb82acfd59489b834b5811aebb2, type: 3}
      propertyPath: m_LocalPosition.y
      value: 0
      objectReference: {fileID: 0}
    - target: {fileID: 2144925647851411236, guid: 46c43bb82acfd59489b834b5811aebb2, type: 3}
      propertyPath: m_LocalPosition.z
      value: 0
      objectReference: {fileID: 0}
    - target: {fileID: 2144925647851411236, guid: 46c43bb82acfd59489b834b5811aebb2, type: 3}
      propertyPath: m_LocalRotation.w
      value: 1
      objectReference: {fileID: 0}
    - target: {fileID: 2144925647851411236, guid: 46c43bb82acfd59489b834b5811aebb2, type: 3}
      propertyPath: m_LocalRotation.x
      value: 0
      objectReference: {fileID: 0}
    - target: {fileID: 2144925647851411236, guid: 46c43bb82acfd59489b834b5811aebb2, type: 3}
      propertyPath: m_LocalRotation.y
      value: 0
      objectReference: {fileID: 0}
    - target: {fileID: 2144925647851411236, guid: 46c43bb82acfd59489b834b5811aebb2, type: 3}
      propertyPath: m_LocalRotation.z
      value: 0
      objectReference: {fileID: 0}
    - target: {fileID: 2144925647851411236, guid: 46c43bb82acfd59489b834b5811aebb2, type: 3}
      propertyPath: m_LocalEulerAnglesHint.x
      value: 0
      objectReference: {fileID: 0}
    - target: {fileID: 2144925647851411236, guid: 46c43bb82acfd59489b834b5811aebb2, type: 3}
      propertyPath: m_LocalEulerAnglesHint.y
      value: 0
      objectReference: {fileID: 0}
    - target: {fileID: 2144925647851411236, guid: 46c43bb82acfd59489b834b5811aebb2, type: 3}
      propertyPath: m_LocalEulerAnglesHint.z
      value: 0
      objectReference: {fileID: 0}
    - target: {fileID: 3561267904517780318, guid: 46c43bb82acfd59489b834b5811aebb2, type: 3}
      propertyPath: _itemProfile
      value: 
      objectReference: {fileID: 11400000, guid: bf83551446a243a419ff1bf934f2b5ef, type: 2}
    m_RemovedComponents: []
  m_SourcePrefab: {fileID: 100100000, guid: 46c43bb82acfd59489b834b5811aebb2, type: 3}
