%YAML 1.1
%TAG !u! tag:unity3d.com,2011:
--- !u!1001 &7664258901751484913
PrefabInstance:
  m_ObjectHideFlags: 0
  serializedVersion: 2
  m_Modification:
    m_TransformParent: {fileID: 0}
    m_Modifications:
    - target: {fileID: 1030457104, guid: 35861f844cc87d3459b393e3916d8994, type: 3}
      propertyPath: _itemProfile
      value: 
      objectReference: {fileID: 11400000, guid: 8e2ed23f062654140816a0f5d2b786d9, type: 2}
    - target: {fileID: 2874339336916908496, guid: 35861f844cc87d3459b393e3916d8994, type: 3}
      propertyPath: m_Name
      value: VHS_Tape Concrete Variant
      objectReference: {fileID: 0}
    - target: {fileID: 3217932750328521578, guid: 35861f844cc87d3459b393e3916d8994, type: 3}
      propertyPath: m_RootOrder
      value: 0
      objectReference: {fileID: 0}
    - target: {fileID: 3217932750328521578, guid: 35861f844cc87d3459b393e3916d8994, type: 3}
      propertyPath: m_LocalPosition.x
      value: 0
      objectReference: {fileID: 0}
    - target: {fileID: 3217932750328521578, guid: 35861f844cc87d3459b393e3916d8994, type: 3}
      propertyPath: m_LocalPosition.y
      value: 0
      objectReference: {fileID: 0}
    - target: {fileID: 3217932750328521578, guid: 35861f844cc87d3459b393e3916d8994, type: 3}
      propertyPath: m_LocalPosition.z
      value: 0
      objectReference: {fileID: 0}
    - target: {fileID: 3217932750328521578, guid: 35861f844cc87d3459b393e3916d8994, type: 3}
      propertyPath: m_LocalRotation.w
      value: 1
      objectReference: {fileID: 0}
    - target: {fileID: 3217932750328521578, guid: 35861f844cc87d3459b393e3916d8994, type: 3}
      propertyPath: m_LocalRotation.x
      value: 0
      objectReference: {fileID: 0}
    - target: {fileID: 3217932750328521578, guid: 35861f844cc87d3459b393e3916d8994, type: 3}
      propertyPath: m_LocalRotation.y
      value: 0
      objectReference: {fileID: 0}
    - target: {fileID: 3217932750328521578, guid: 35861f844cc87d3459b393e3916d8994, type: 3}
      propertyPath: m_LocalRotation.z
      value: 0
      objectReference: {fileID: 0}
    - target: {fileID: 3217932750328521578, guid: 35861f844cc87d3459b393e3916d8994, type: 3}
      propertyPath: m_LocalEulerAnglesHint.x
      value: 0
      objectReference: {fileID: 0}
    - target: {fileID: 3217932750328521578, guid: 35861f844cc87d3459b393e3916d8994, type: 3}
      propertyPath: m_LocalEulerAnglesHint.y
      value: 0
      objectReference: {fileID: 0}
    - target: {fileID: 3217932750328521578, guid: 35861f844cc87d3459b393e3916d8994, type: 3}
      propertyPath: m_LocalEulerAnglesHint.z
      value: 0
      objectReference: {fileID: 0}
    m_RemovedComponents: []
  m_SourcePrefab: {fileID: 100100000, guid: 35861f844cc87d3459b393e3916d8994, type: 3}
