%YAML 1.1
%TAG !u! tag:unity3d.com,2011:
--- !u!114 &11400000
MonoBehaviour:
  m_ObjectHideFlags: 0
  m_CorrespondingSourceObject: {fileID: 0}
  m_PrefabInstance: {fileID: 0}
  m_PrefabAsset: {fileID: 0}
  m_GameObject: {fileID: 0}
  m_Enabled: 1
  m_EditorHideFlags: 0
  m_Script: {fileID: 11500000, guid: d8f4bf170ace4f84e9b04994c125c27e, type: 3}
  m_Name: Scanlines
  m_EditorClassIdentifier: 
  scanlineTex: {fileID: 2800000, guid: eaf8cce761658d048bb9649842b26b70, type: 3}
  strength: 0.5
  size: 10
