{
    "name": "InputMaster",
    "maps": [
        {
            "name": "Player",
            "id": "ff9dcb9d-8e12-481b-bc69-4c96cf5604f6",
            "actions": [
                {
                    "name": "WASD",
                    "type": "PassThrough",
                    "id": "8153e687-c5df-4cac-9b61-8f93bd8b0fa7",
                    "expectedControlType": "Vector2",
                    "processors": "",
                    "interactions": "",
                    "initialStateCheck": false
                },
                {
                    "name": "Interact",
                    "type": "Button",
                    "id": "153f9d79-b9c1-440f-b0d5-ea84682c4bd1",
                    "expectedControlType": "Button",
                    "processors": "",
                    "interactions": "Press",
                    "initialStateCheck": false
                },
                {
                    "name": "Esc",
                    "type": "Button",
                    "id": "4a5be351-029e-4b6c-b75b-48302f5fbbe9",
                    "expectedControlType": "Button",
                    "processors": "",
                    "interactions": "",
                    "initialStateCheck": false
                },
                {
                    "name": "Shift",
                    "type": "PassThrough",
                    "id": "47003171-8377-4f30-a004-7e861a3088cd",
                    "expectedControlType": "",
                    "processors": "",
                    "interactions": "",
                    "initialStateCheck": false
                },
                {
                    "name": "MouseLook",
                    "type": "PassThrough",
                    "id": "c699b8a2-cc07-4c2a-9939-9b3d5a15d7ad",
                    "expectedControlType": "Vector2",
                    "processors": "",
                    "interactions": "",
                    "initialStateCheck": false
                },
                {
                    "name": "LeftClick",
                    "type": "Button",
                    "id": "03ea7066-0471-4fd6-91d4-76ce910f1e13",
                    "expectedControlType": "Button",
                    "processors": "",
                    "interactions": "",
                    "initialStateCheck": false
                },
                {
                    "name": "RightClick",
                    "type": "Button",
                    "id": "93a6904c-7376-4c79-86e9-b3375f0c6104",
                    "expectedControlType": "Button",
                    "processors": "",
                    "interactions": "",
                    "initialStateCheck": false
                },
                {
                    "name": "RightHold",
                    "type": "PassThrough",
                    "id": "74adade6-d92c-4a77-a525-98dbd08bf1e5",
                    "expectedControlType": "",
                    "processors": "",
                    "interactions": "",
                    "initialStateCheck": false
                },
                {
                    "name": "Spacebar",
                    "type": "Button",
                    "id": "5dbb9a07-f8ff-4dd4-9b0b-970cf2168dad",
                    "expectedControlType": "Button",
                    "processors": "",
                    "interactions": "",
                    "initialStateCheck": false
                },
                {
                    "name": "Ctrl",
                    "type": "PassThrough",
                    "id": "0e6ae096-2126-4039-8300-1a1846f79df2",
                    "expectedControlType": "",
                    "processors": "",
                    "interactions": "",
                    "initialStateCheck": false
                },
                {
                    "name": "Console",
                    "type": "Button",
                    "id": "ea491699-132a-417c-ba29-dcf962b8e084",
                    "expectedControlType": "Button",
                    "processors": "",
                    "interactions": "",
                    "initialStateCheck": false
                },
                {
                    "name": "Tab",
                    "type": "Button",
                    "id": "66be0f20-1152-45f7-8d80-591c3cd84a96",
                    "expectedControlType": "Button",
                    "processors": "",
                    "interactions": "",
                    "initialStateCheck": false
                },
                {
                    "name": "Enter",
                    "type": "Button",
                    "id": "a1e8f58c-dc33-4ff0-a1a4-04bdccd0f25c",
                    "expectedControlType": "Button",
                    "processors": "",
                    "interactions": "",
                    "initialStateCheck": false
                },
                {
                    "name": "F10",
                    "type": "Button",
                    "id": "67202215-6e31-4dde-b884-220cc9904e33",
                    "expectedControlType": "Button",
                    "processors": "",
                    "interactions": "",
                    "initialStateCheck": false
                },
                {
                    "name": "F9",
                    "type": "Button",
                    "id": "7f88207b-04fb-433a-9ef5-8eadc8137429",
                    "expectedControlType": "Button",
                    "processors": "",
                    "interactions": "",
                    "initialStateCheck": false
                }
            ],
            "bindings": [
                {
                    "name": "",
                    "id": "3ced5870-d4b8-4082-a114-4161205cb8eb",
                    "path": "<Keyboard>/e",
                    "interactions": "",
                    "processors": "",
                    "groups": "",
                    "action": "Interact",
                    "isComposite": false,
                    "isPartOfComposite": false
                },
                {
                    "name": "",
                    "id": "5a2c83ff-0024-449c-9164-4d5d0ad47e38",
                    "path": "<Keyboard>/escape",
                    "interactions": "",
                    "processors": "",
                    "groups": "",
                    "action": "Esc",
                    "isComposite": false,
                    "isPartOfComposite": false
                },
                {
                    "name": "",
                    "id": "f2428736-46f5-4fd5-a380-3a1a62e17ad6",
                    "path": "<Keyboard>/shift",
                    "interactions": "",
                    "processors": "",
                    "groups": "",
                    "action": "Shift",
                    "isComposite": false,
                    "isPartOfComposite": false
                },
                {
                    "name": "",
                    "id": "9292a93b-4104-47de-9130-07b2aec49cc2",
                    "path": "<Mouse>/delta",
                    "interactions": "",
                    "processors": "",
                    "groups": "",
                    "action": "MouseLook",
                    "isComposite": false,
                    "isPartOfComposite": false
                },
                {
                    "name": "",
                    "id": "20b0d488-7c36-4f5e-b6e9-9e58f2440f4b",
                    "path": "<Mouse>/leftButton",
                    "interactions": "",
                    "processors": "",
                    "groups": "",
                    "action": "LeftClick",
                    "isComposite": false,
                    "isPartOfComposite": false
                },
                {
                    "name": "",
                    "id": "10804c2f-99ae-4a0a-9895-d341671edd94",
                    "path": "<Mouse>/rightButton",
                    "interactions": "",
                    "processors": "",
                    "groups": "",
                    "action": "RightClick",
                    "isComposite": false,
                    "isPartOfComposite": false
                },
                {
                    "name": "",
                    "id": "b14aebb9-da64-481a-8d2c-245dfa95ce4f",
                    "path": "<Mouse>/rightButton",
                    "interactions": "",
                    "processors": "",
                    "groups": "",
                    "action": "RightHold",
                    "isComposite": false,
                    "isPartOfComposite": false
                },
                {
                    "name": "",
                    "id": "4b9a235c-00d4-41f1-86d7-cb4e1386b70b",
                    "path": "<Keyboard>/space",
                    "interactions": "",
                    "processors": "",
                    "groups": "",
                    "action": "Spacebar",
                    "isComposite": false,
                    "isPartOfComposite": false
                },
                {
                    "name": "",
                    "id": "47a62502-3bef-4144-bf31-c22e8634ebc4",
                    "path": "<Keyboard>/ctrl",
                    "interactions": "",
                    "processors": "",
                    "groups": "",
                    "action": "Ctrl",
                    "isComposite": false,
                    "isPartOfComposite": false
                },
                {
                    "name": "",
                    "id": "6432a18c-b721-4758-bb72-f7054d196e1e",
                    "path": "<Keyboard>/f10",
                    "interactions": "",
                    "processors": "",
                    "groups": "",
                    "action": "Console",
                    "isComposite": false,
                    "isPartOfComposite": false
                },
                {
                    "name": "",
                    "id": "1bd9935b-89e1-4fe8-8b7c-ed389e20980e",
                    "path": "<Keyboard>/tab",
                    "interactions": "",
                    "processors": "",
                    "groups": "",
                    "action": "Tab",
                    "isComposite": false,
                    "isPartOfComposite": false
                },
                {
                    "name": "2D Vector",
                    "id": "d0a68b57-519a-4c78-b435-5683a03faa97",
                    "path": "2DVector",
                    "interactions": "",
                    "processors": "",
                    "groups": "",
                    "action": "WASD",
                    "isComposite": true,
                    "isPartOfComposite": false
                },
                {
                    "name": "up",
                    "id": "9b01dfd7-7c12-4795-bdcd-1bd31bc62106",
                    "path": "<Keyboard>/w",
                    "interactions": "",
                    "processors": "",
                    "groups": "",
                    "action": "WASD",
                    "isComposite": false,
                    "isPartOfComposite": true
                },
                {
                    "name": "down",
                    "id": "98a73d3e-29b3-4333-aefc-78b800d795a2",
                    "path": "<Keyboard>/s",
                    "interactions": "",
                    "processors": "",
                    "groups": "",
                    "action": "WASD",
                    "isComposite": false,
                    "isPartOfComposite": true
                },
                {
                    "name": "left",
                    "id": "22ecbdf4-9678-462c-9922-6f3d74141ecb",
                    "path": "<Keyboard>/a",
                    "interactions": "",
                    "processors": "",
                    "groups": "",
                    "action": "WASD",
                    "isComposite": false,
                    "isPartOfComposite": true
                },
                {
                    "name": "right",
                    "id": "68561ea3-4e8a-480e-962f-876c81c5ce7a",
                    "path": "<Keyboard>/d",
                    "interactions": "",
                    "processors": "",
                    "groups": "",
                    "action": "WASD",
                    "isComposite": false,
                    "isPartOfComposite": true
                },
                {
                    "name": "",
                    "id": "f00e4d3b-383c-4835-8495-7f21c69335b5",
                    "path": "<Keyboard>/enter",
                    "interactions": "",
                    "processors": "",
                    "groups": "",
                    "action": "Enter",
                    "isComposite": false,
                    "isPartOfComposite": false
                },
                {
                    "name": "",
                    "id": "392205c4-36e2-4334-8919-36dd4eaf3b05",
                    "path": "<Keyboard>/numpadEnter",
                    "interactions": "",
                    "processors": "",
                    "groups": "",
                    "action": "Enter",
                    "isComposite": false,
                    "isPartOfComposite": false
                },
                {
                    "name": "",
                    "id": "b50fb414-f3f2-441f-b674-97be8d018fb3",
                    "path": "<Keyboard>/f10",
                    "interactions": "",
                    "processors": "",
                    "groups": "",
                    "action": "F10",
                    "isComposite": false,
                    "isPartOfComposite": false
                },
                {
                    "name": "",
                    "id": "8dce0b1a-86a7-4ae1-9e23-17d837bb98bd",
                    "path": "<Keyboard>/f9",
                    "interactions": "",
                    "processors": "",
                    "groups": "",
                    "action": "F9",
                    "isComposite": false,
                    "isPartOfComposite": false
                }
            ]
        }
    ],
    "controlSchemes": []
}