%YAML 1.1
%TAG !u! tag:unity3d.com,2011:
--- !u!114 &11400000
MonoBehaviour:
  m_ObjectHideFlags: 0
  m_CorrespondingSourceObject: {fileID: 0}
  m_PrefabInstance: {fileID: 0}
  m_PrefabAsset: {fileID: 0}
  m_GameObject: {fileID: 0}
  m_Enabled: 1
  m_EditorHideFlags: 0
  m_Script: {fileID: 11500000, guid: b210331f3d48806408a0b9c3b0ef3d15, type: 3}
  m_Name: Item_03_Conc_DoorKey
  m_EditorClassIdentifier: 
  _itemID: 3
  _itemName: Door Key (Concrete Room)
  _itemDescription: This could be used to unlock a door on the second floor.
  _itemIcon: {fileID: 21300000, guid: 0ed92065bbce0824381f3cba40387f61, type: 3}
  _itemPrefab: {fileID: 6286739258067956277, guid: ae375f682cecc1a4dbeee9ce872703d9, type: 3}
  _usable: 0
  _droppable: 1
