%YAML 1.1
%TAG !u! tag:unity3d.com,2011:
--- !u!114 &11400000
MonoBehaviour:
  m_ObjectHideFlags: 0
  m_CorrespondingSourceObject: {fileID: 0}
  m_PrefabInstance: {fileID: 0}
  m_PrefabAsset: {fileID: 0}
  m_GameObject: {fileID: 0}
  m_Enabled: 1
  m_EditorHideFlags: 0
  m_Script: {fileID: 11500000, guid: 4a85f030a80c02741b256eaa8dbb15ac, type: 3}
  m_Name: Item_17_Vintage_GalleryTape
  m_EditorClassIdentifier: 
  _itemID: 15
  _itemName: <color=#ff0000ff>WAKE UP Tape</color>
  _itemDescription: Use this to exit the dream tape and wake up to the real world.
  _itemIcon: {fileID: 21300000, guid: 32069eb0f24aa9f47b86ae3d0f9d1c78, type: 3}
  _itemPrefab: {fileID: 982642546983870905, guid: 44c3a02c0a718964c9b886ee71d8e8ab, type: 3}
  _usable: 1
  _droppable: 1
  _dialogueGraph: {fileID: 11400000, guid: 2655cea9cb4d09544b046672a9a3653a, type: 2}
  _destroyedOnUsed: 1
