%YAML 1.1
%TAG !u! tag:unity3d.com,2011:
--- !u!1001 &1855646444612004781
PrefabInstance:
  m_ObjectHideFlags: 0
  serializedVersion: 2
  m_Modification:
    m_TransformParent: {fileID: 0}
    m_Modifications:
    - target: {fileID: -8679921383154817045, guid: 25d656c7d13335e418d20e9694f6f74b, type: 3}
      propertyPath: m_RootOrder
      value: 0
      objectReference: {fileID: 0}
    - target: {fileID: -8679921383154817045, guid: 25d656c7d13335e418d20e9694f6f74b, type: 3}
      propertyPath: m_LocalScale.x
      value: 1
      objectReference: {fileID: 0}
    - target: {fileID: -8679921383154817045, guid: 25d656c7d13335e418d20e9694f6f74b, type: 3}
      propertyPath: m_LocalScale.y
      value: 1
      objectReference: {fileID: 0}
    - target: {fileID: -8679921383154817045, guid: 25d656c7d13335e418d20e9694f6f74b, type: 3}
      propertyPath: m_LocalScale.z
      value: 1
      objectReference: {fileID: 0}
    - target: {fileID: -8679921383154817045, guid: 25d656c7d13335e418d20e9694f6f74b, type: 3}
      propertyPath: m_LocalPosition.x
      value: 0
      objectReference: {fileID: 0}
    - target: {fileID: -8679921383154817045, guid: 25d656c7d13335e418d20e9694f6f74b, type: 3}
      propertyPath: m_LocalPosition.y
      value: 0
      objectReference: {fileID: 0}
    - target: {fileID: -8679921383154817045, guid: 25d656c7d13335e418d20e9694f6f74b, type: 3}
      propertyPath: m_LocalPosition.z
      value: 0
      objectReference: {fileID: 0}
    - target: {fileID: -8679921383154817045, guid: 25d656c7d13335e418d20e9694f6f74b, type: 3}
      propertyPath: m_LocalRotation.w
      value: 1
      objectReference: {fileID: 0}
    - target: {fileID: -8679921383154817045, guid: 25d656c7d13335e418d20e9694f6f74b, type: 3}
      propertyPath: m_LocalRotation.x
      value: 0
      objectReference: {fileID: 0}
    - target: {fileID: -8679921383154817045, guid: 25d656c7d13335e418d20e9694f6f74b, type: 3}
      propertyPath: m_LocalRotation.y
      value: 0
      objectReference: {fileID: 0}
    - target: {fileID: -8679921383154817045, guid: 25d656c7d13335e418d20e9694f6f74b, type: 3}
      propertyPath: m_LocalRotation.z
      value: 0
      objectReference: {fileID: 0}
    - target: {fileID: -8679921383154817045, guid: 25d656c7d13335e418d20e9694f6f74b, type: 3}
      propertyPath: m_LocalEulerAnglesHint.x
      value: 0
      objectReference: {fileID: 0}
    - target: {fileID: -8679921383154817045, guid: 25d656c7d13335e418d20e9694f6f74b, type: 3}
      propertyPath: m_LocalEulerAnglesHint.y
      value: 0
      objectReference: {fileID: 0}
    - target: {fileID: -8679921383154817045, guid: 25d656c7d13335e418d20e9694f6f74b, type: 3}
      propertyPath: m_LocalEulerAnglesHint.z
      value: 0
      objectReference: {fileID: 0}
    - target: {fileID: 919132149155446097, guid: 25d656c7d13335e418d20e9694f6f74b, type: 3}
      propertyPath: m_Name
      value: WoodenDoor Variant
      objectReference: {fileID: 0}
    - target: {fileID: 919132149155446097, guid: 25d656c7d13335e418d20e9694f6f74b, type: 3}
      propertyPath: m_Layer
      value: 0
      objectReference: {fileID: 0}
    - target: {fileID: 919132149155446097, guid: 25d656c7d13335e418d20e9694f6f74b, type: 3}
      propertyPath: m_StaticEditorFlags
      value: 2
      objectReference: {fileID: 0}
    - target: {fileID: 3790250826140767922, guid: 25d656c7d13335e418d20e9694f6f74b, type: 3}
      propertyPath: m_Enabled
      value: 1
      objectReference: {fileID: 0}
    - target: {fileID: 7521970420607329124, guid: 25d656c7d13335e418d20e9694f6f74b, type: 3}
      propertyPath: m_Layer
      value: 7
      objectReference: {fileID: 0}
    - target: {fileID: 7521970420607329124, guid: 25d656c7d13335e418d20e9694f6f74b, type: 3}
      propertyPath: m_StaticEditorFlags
      value: 2
      objectReference: {fileID: 0}
    - target: {fileID: 9086903239817668668, guid: 25d656c7d13335e418d20e9694f6f74b, type: 3}
      propertyPath: m_LocalRotation.w
      value: 1
      objectReference: {fileID: 0}
    - target: {fileID: 9086903239817668668, guid: 25d656c7d13335e418d20e9694f6f74b, type: 3}
      propertyPath: m_LocalRotation.y
      value: -0
      objectReference: {fileID: 0}
    - target: {fileID: 9086903239817668668, guid: 25d656c7d13335e418d20e9694f6f74b, type: 3}
      propertyPath: m_LocalRotation.z
      value: -0
      objectReference: {fileID: 0}
    - target: {fileID: 9086903239817668668, guid: 25d656c7d13335e418d20e9694f6f74b, type: 3}
      propertyPath: m_LocalEulerAnglesHint.y
      value: 0
      objectReference: {fileID: 0}
    m_RemovedComponents: []
  m_SourcePrefab: {fileID: 100100000, guid: 25d656c7d13335e418d20e9694f6f74b, type: 3}
--- !u!1 &8188666322429348041 stripped
GameObject:
  m_CorrespondingSourceObject: {fileID: 7521970420607329124, guid: 25d656c7d13335e418d20e9694f6f74b, type: 3}
  m_PrefabInstance: {fileID: 1855646444612004781}
  m_PrefabAsset: {fileID: 0}
--- !u!82 &6466729569493489712
AudioSource:
  m_ObjectHideFlags: 0
  m_CorrespondingSourceObject: {fileID: 0}
  m_PrefabInstance: {fileID: 0}
  m_PrefabAsset: {fileID: 0}
  m_GameObject: {fileID: 8188666322429348041}
  m_Enabled: 1
  serializedVersion: 4
  OutputAudioMixerGroup: {fileID: -8660288561586339783, guid: af08b0316144ff747896bf15eb83928e, type: 2}
  m_audioClip: {fileID: 0}
  m_PlayOnAwake: 0
  m_Volume: 1
  m_Pitch: 1
  Loop: 0
  Mute: 0
  Spatialize: 0
  SpatializePostEffects: 0
  Priority: 128
  DopplerLevel: 1
  MinDistance: 3
  MaxDistance: 5
  Pan2D: 0
  rolloffMode: 0
  BypassEffects: 0
  BypassListenerEffects: 0
  BypassReverbZones: 0
  rolloffCustomCurve:
    serializedVersion: 2
    m_Curve:
    - serializedVersion: 3
      time: 0
      value: 1
      inSlope: 0
      outSlope: 0
      tangentMode: 0
      weightedMode: 0
      inWeight: 0.33333334
      outWeight: 0.33333334
    - serializedVersion: 3
      time: 1
      value: 0
      inSlope: 0
      outSlope: 0
      tangentMode: 0
      weightedMode: 0
      inWeight: 0.33333334
      outWeight: 0.33333334
    m_PreInfinity: 2
    m_PostInfinity: 2
    m_RotationOrder: 4
  panLevelCustomCurve:
    serializedVersion: 2
    m_Curve:
    - serializedVersion: 3
      time: 0
      value: 1
      inSlope: 0
      outSlope: 0
      tangentMode: 0
      weightedMode: 0
      inWeight: 0.33333334
      outWeight: 0.33333334
    m_PreInfinity: 2
    m_PostInfinity: 2
    m_RotationOrder: 4
  spreadCustomCurve:
    serializedVersion: 2
    m_Curve:
    - serializedVersion: 3
      time: 0
      value: 0
      inSlope: 0
      outSlope: 0
      tangentMode: 0
      weightedMode: 0
      inWeight: 0.33333334
      outWeight: 0.33333334
    m_PreInfinity: 2
    m_PostInfinity: 2
    m_RotationOrder: 4
  reverbZoneMixCustomCurve:
    serializedVersion: 2
    m_Curve:
    - serializedVersion: 3
      time: 0
      value: 1
      inSlope: 0
      outSlope: 0
      tangentMode: 0
      weightedMode: 0
      inWeight: 0.33333334
      outWeight: 0.33333334
    m_PreInfinity: 2
    m_PostInfinity: 2
    m_RotationOrder: 4
--- !u!95 &6940811148868576338
Animator:
  serializedVersion: 4
  m_ObjectHideFlags: 0
  m_CorrespondingSourceObject: {fileID: 0}
  m_PrefabInstance: {fileID: 0}
  m_PrefabAsset: {fileID: 0}
  m_GameObject: {fileID: 8188666322429348041}
  m_Enabled: 1
  m_Avatar: {fileID: 0}
  m_Controller: {fileID: 9100000, guid: 7501d0b28c940d541952addba1b218b7, type: 2}
  m_CullingMode: 0
  m_UpdateMode: 0
  m_ApplyRootMotion: 0
  m_LinearVelocityBlending: 0
  m_StabilizeFeet: 0
  m_WarningMessage: 
  m_HasTransformHierarchy: 1
  m_AllowConstantClipSamplingOptimization: 1
  m_KeepAnimatorControllerStateOnDisable: 0
--- !u!114 &190949237876789773
MonoBehaviour:
  m_ObjectHideFlags: 0
  m_CorrespondingSourceObject: {fileID: 0}
  m_PrefabInstance: {fileID: 0}
  m_PrefabAsset: {fileID: 0}
  m_GameObject: {fileID: 8188666322429348041}
  m_Enabled: 1
  m_EditorHideFlags: 0
  m_Script: {fileID: 11500000, guid: f71b0b5fb31ce724a8d912043296b50f, type: 3}
  m_Name: 
  m_EditorClassIdentifier: 
  _deleteKey: 0
  _isLocked: 0
  _isOpened: 0
  _doorDelay: 1
  _keyItemProfile: {fileID: 11400000, guid: 1a6142d97f282324fbce5e2d4cd7404b, type: 2}
  _doorAnim: {fileID: 6940811148868576338}
  _doorOpenIdle: {fileID: 7400000, guid: ea4ec1e9382cac14c8c5a3781e6be9f5, type: 2}
  _doorCloseIdle: {fileID: 7400000, guid: e8f8d4d32bf29464c81e696acd1e00b7, type: 2}
  _doorOpen: {fileID: 7400000, guid: bae1d12546129bf4e8bb3566b25398ac, type: 2}
  _doorClose: {fileID: 7400000, guid: b1c514ad1326db04696c41adc147f9c4, type: 2}
  _doorAudioSource: {fileID: 6466729569493489712}
  _openSound: {fileID: 8300000, guid: f5abeaa0707bc0d4b8a1e410584d6e0e, type: 3}
  _closeSound: {fileID: 8300000, guid: d0cbe4bf9f88c9c47894cc8d72aa51cb, type: 3}
  _lockedSound: {fileID: 8300000, guid: 086ac4b7d3de24b45898841219c5ea5b, type: 3}
  _unlockedSound: {fileID: 8300000, guid: f38c6a00714868e4a919524654918626, type: 3}
  _lockedSubtitleTimer: 3
  _onLocked: It's locked
  _unlockedSubtitleTimer: 3
  _onUnlock: It's now unlock
